Tarea Text Mining
…
Recopilar la base de datos.

Realizo una peticion de twitts, para posteriormente realizar una comparacion segun un analisis de sentimiento entre los candidatos americanos. Al momento de escribir estas lineas EEUU se encuentra en campania electoral, mientras sucede un fuerte movimiento racial, producto del asesinato de George Floyd en manos del cuerpo de policia de Minepolis.

La fecha de descarga es del 08/06/2020 en un total de 1800 twitts por cada cadidato.

Tal como lo vimos en clase, la librera rtweet nos ofrece algunas funciones para sacar informacin general de Twitter, como

# Los emojis
emojis

## # A tibble: 2,623 x 2
##    code         description                    
##    <chr>        <chr>                          
##  1 "\U0001f600" grinning face                  
##  2 "\U0001f601" beaming face with smiling eyes 
##  3 "\U0001f602" face with tears of joy         
##  4 "\U0001f923" rolling on the floor laughing  
##  5 "\U0001f603" grinning face with big eyes    
##  6 "\U0001f604" grinning face with smiling eyes
##  7 "\U0001f605" grinning face with sweat       
##  8 "\U0001f606" grinning squinting face        
##  9 "\U0001f609" winking face                   
## 10 "\U0001f60a" smiling face with smiling eyes 
## # ... with 2,613 more rows

Los lenguajes aceptados en Twitter

langs

## # A tibble: 486 x 5
##    bibliographic terminologic alpha english               french                
##    <chr>         <chr>        <chr> <chr>                 <chr>                 
##  1 aar           <NA>         aa    Afar                  afar                  
##  2 abk           <NA>         ab    Abkhazian             abkhaze               
##  3 ace           <NA>         <NA>  Achinese              aceh                  
##  4 ach           <NA>         <NA>  Acoli                 acoli                 
##  5 ada           <NA>         <NA>  Adangme               adangme               
##  6 ady           <NA>         <NA>  Adyghe; Adygei        adygh                
##  7 afa           <NA>         <NA>  Afro-Asiatic languag~ afro-asiatiques, lang~
##  8 afh           <NA>         <NA>  Afrihili              afrihili              
##  9 afr           <NA>         af    Afrikaans             afrikaans             
## 10 ain           <NA>         <NA>  Ainu                  anou                 
## # ... with 476 more rows
…
Seguidos

dt_fds <- get_friends("realDonaldTrump")
dt_fds

## # A tibble: 46 x 2
##    user            user_id           
##    <chr>           <chr>             
##  1 realDonaldTrump 29458079          
##  2 realDonaldTrump 18166778          
##  3 realDonaldTrump 208155240         
##  4 realDonaldTrump 818910970567344128
##  5 realDonaldTrump 2353605901        
##  6 realDonaldTrump 17685258          
##  7 realDonaldTrump 818927131883356161
##  8 realDonaldTrump 22703645          
##  9 realDonaldTrump 56561449          
## 10 realDonaldTrump 822215673812119553
## # ... with 36 more rows

dt_fds_data <- lookup_users(dt_fds$user_id)
dt_fds_data

## # A tibble: 46 x 90
##    user_id status_id created_at          screen_name text  source
##    <chr>   <chr>     <dttm>              <chr>       <chr> <chr> 
##  1 294580~ 12732836~ 2020-06-17 15:57:37 JudgeJeani~ "ICY~ Twitt~
##  2 181667~ 12733438~ 2020-06-17 19:56:35 Jim_Jordan  "Ame~ Twitt~
##  3 208155~ 12733094~ 2020-06-17 17:40:03 MariaBarti~ "Cap~ Hoots~
##  4 818910~ 12733004~ 2020-06-17 17:04:11 VP          "htt~ Twitt~
##  5 235360~ 12733517~ 2020-06-17 20:28:11 GOPChairwo~ "One~ Sprou~
##  6 176852~ 12733583~ 2020-06-17 20:54:20 parscale    "Joe~ Twitt~
##  7 818927~ 12730822~ 2020-06-17 02:37:09 PressSec    "I w~ Twitt~
##  8 227036~ 12716163~ 2020-06-13 01:32:24 TuckerCarl~ "New~ Twitt~
##  9 565614~ 12732295~ 2020-06-17 12:22:26 JesseBWatt~ "Wat~ Twitt~
## 10 822215~ 12733648~ 2020-06-17 21:20:15 WhiteHouse  "\"I~ TheWh~
## # ... with 36 more rows, and 84 more variables: display_text_width <int>,
## #   reply_to_status_id <chr>, reply_to_user_id <chr>,
## #   reply_to_screen_name <chr>, is_quote <lgl>, is_retweet <lgl>,
## #   favorite_count <int>, retweet_count <int>, quote_count <int>,
## #   reply_count <int>, hashtags <list>, symbols <list>, urls_url <list>,
## #   urls_t.co <list>, urls_expanded_url <list>, media_url <list>,
## #   media_t.co <list>, media_expanded_url <list>, media_type <list>,
## #   ext_media_url <list>, ext_media_t.co <list>, ext_media_expanded_url <list>,
## #   ext_media_type <chr>, mentions_user_id <list>, mentions_screen_name <list>,
…
dt_screen_name <- dt_fds_data[,4]
dt_screen_name

## # A tibble: 46 x 1
##    screen_name   
##    <chr>         
##  1 JudgeJeanine  
##  2 Jim_Jordan    
##  3 MariaBartiromo
##  4 VP            
##  5 GOPChairwoman 
##  6 parscale      
##  7 PressSec      
##  8 TuckerCarlson 
##  9 JesseBWatters 
## 10 WhiteHouse    
## # ... with 36 more rows
…
Seguidos

jb_fds <- get_friends("JoeBiden")
jb_fds

## # A tibble: 26 x 2
##    user     user_id            
##    <chr>    <chr>              
##  1 JoeBiden 1141928541656952832
##  2 JoeBiden 1141929375639777280
##  3 JoeBiden 1141929016443777024
##  4 JoeBiden 1141928177046106114
##  5 JoeBiden 1129095209772552192
##  6 JoeBiden 609476852          
##  7 JoeBiden 14230524           
##  8 JoeBiden 2840712124         
##  9 JoeBiden 821784477076750338 
## 10 JoeBiden 869995492687716354 
## # ... with 16 more rows

jb_fds_data <- lookup_users(jb_fds$user_id)
jb_fds_data

## # A tibble: 26 x 90
##    user_id status_id created_at          screen_name text  source
##    <chr>   <chr>     <dttm>              <chr>       <chr> <chr> 
##  1 114192~ 12317779~ 2020-02-24 03:08:36 JoeForNV    "Lov~ Twitt~
##  2 114192~ 12370354~ 2020-03-09 15:20:13 JoeForSC    "Oka~ Twitt~
##  3 114192~ 12721781~ 2020-06-14 14:44:43 JoeForNH    "Tom~ Twitt~
##  4 114192~ 12276704~ 2020-02-12 19:07:06 JoeForIA    "Tea~ Twitt~
##  5 112909~ 12733554~ 2020-06-17 20:43:00 TeamJoe     "Fro~ Tweet~
##  6 609476~ 12571058~ 2020-05-04 00:32:52 De11eDonne  "#Be~ Tweet~
##  7 142305~ 12729726~ 2020-06-16 19:21:45 ladygaga    "Sho~ Twitt~
##  8 284071~ 12733744~ 2020-06-17 21:58:20 ItsOnUs     "A s~ Twitt~
##  9 821784~ 12733608~ 2020-06-17 21:04:14 DrBiden     "Ema~ Twitt~
## 10 869995~ 12725987~ 2020-06-15 18:36:00 UDBidenInst "Lov~ Twitt~
## # ... with 16 more rows, and 84 more variables: display_text_width <int>,
## #   reply_to_status_id <chr>, reply_to_user_id <chr>,
## #   reply_to_screen_name <chr>, is_quote <lgl>, is_retweet <lgl>,
## #   favorite_count <int>, retweet_count <int>, quote_count <int>,
## #   reply_count <int>, hashtags <list>, symbols <list>, urls_url <list>,
## #   urls_t.co <list>, urls_expanded_url <list>, media_url <list>,
## #   media_t.co <list>, media_expanded_url <list>, media_type <list>,
## #   ext_media_url <list>, ext_media_t.co <list>, ext_media_expanded_url <list>,
## #   ext_media_type <chr>, mentions_user_id <list>, mentions_screen_name <list>,
…
jb_screen_name <- jb_fds_data[,4]
jb_screen_name

## # A tibble: 26 x 1
##    screen_name
##    <chr>      
##  1 JoeForNV   
##  2 JoeForSC   
##  3 JoeForNH   
##  4 JoeForIA   
##  5 TeamJoe    
##  6 De11eDonne 
##  7 ladygaga   
##  8 ItsOnUs    
##  9 DrBiden    
## 10 UDBidenInst
## # ... with 16 more rows
…
Seguidos

jb_fds <- get_friends("JoeBiden")
jb_fds

## # A tibble: 26 x 2
##    user     user_id            
##    <chr>    <chr>              
##  1 JoeBiden 1141928541656952832
##  2 JoeBiden 1141929375639777280
##  3 JoeBiden 1141929016443777024
##  4 JoeBiden 1141928177046106114
##  5 JoeBiden 1129095209772552192
##  6 JoeBiden 609476852          
##  7 JoeBiden 14230524           
##  8 JoeBiden 2840712124         
##  9 JoeBiden 821784477076750338 
## 10 JoeBiden 869995492687716354 
## # ... with 16 more rows

jb_fds_data <- lookup_users(jb_fds$user_id)
jb_fds_data

## # A tibble: 26 x 90
##    user_id status_id created_at          screen_name text  source
##    <chr>   <chr>     <dttm>              <chr>       <chr> <chr> 
##  1 114192~ 12317779~ 2020-02-24 03:08:36 JoeForNV    "Lov~ Twitt~
##  2 114192~ 12370354~ 2020-03-09 15:20:13 JoeForSC    "Oka~ Twitt~
##  3 114192~ 12721781~ 2020-06-14 14:44:43 JoeForNH    "Tom~ Twitt~
##  4 114192~ 12276704~ 2020-02-12 19:07:06 JoeForIA    "Tea~ Twitt~
##  5 112909~ 12733554~ 2020-06-17 20:43:00 TeamJoe     "Fro~ Tweet~
##  6 609476~ 12571058~ 2020-05-04 00:32:52 De11eDonne  "#Be~ Tweet~
##  7 142305~ 12729726~ 2020-06-16 19:21:45 ladygaga    "Sho~ Twitt~
##  8 284071~ 12733744~ 2020-06-17 21:58:20 ItsOnUs     "A s~ Twitt~
##  9 821784~ 12733608~ 2020-06-17 21:04:14 DrBiden     "Ema~ Twitt~
## 10 869995~ 12725987~ 2020-06-15 18:36:00 UDBidenInst "Lov~ Twitt~
## # ... with 16 more rows, and 84 more variables: display_text_width <int>,
## #   reply_to_status_id <chr>, reply_to_user_id <chr>,
## #   reply_to_screen_name <chr>, is_quote <lgl>, is_retweet <lgl>,
## #   favorite_count <int>, retweet_count <int>, quote_count <int>,
## #   reply_count <int>, hashtags <list>, symbols <list>, urls_url <list>,
## #   urls_t.co <list>, urls_expanded_url <list>, media_url <list>,
## #   media_t.co <list>, media_expanded_url <list>, media_type <list>,
## #   ext_media_url <list>, ext_media_t.co <list>, ext_media_expanded_url <list>,
## #   ext_media_type <chr>, mentions_user_id <list>, mentions_screen_name <list>,
…
jb_screen_name <- jb_fds_data[,4]
jb_screen_name

## # A tibble: 26 x 1
##    screen_name
##    <chr>      
##  1 JoeForNV   
##  2 JoeForSC   
##  3 JoeForNH   
##  4 JoeForIA   
##  5 TeamJoe    
##  6 De11eDonne 
##  7 ladygaga   
##  8 ItsOnUs    
##  9 DrBiden    
## 10 UDBidenInst
## # ... with 16 more rows
…
